%YAML 1.1
%TAG !u! tag:unity3d.com,2011:
--- !u!1045 &1
EditorBuildSettings:
  m_ObjectHideFlags: 0
  serializedVersion: 2
  m_Scenes:
  - enabled: 1
    path: Assets/Scenes/Menu.unity
    guid: d2b4b2a8d4a10bb4294b77d53d69ae08
  - enabled: 1
    path: Assets/Scenes/Ayuda.unity
    guid: cb0fb7ab8d106454cb86f313ff684ea5
  - enabled: 1
    path: Assets/Scenes/ChenOver.unity
    guid: f086bae6d48884d40ba965455c267ca3
  - enabled: 1
    path: Assets/Scenes/eleccionInicial.unity
    guid: 7717ed26dbbc8d84bbb92a8579eed92f
  - enabled: 1
    path: Assets/Scenes/Juego_escena.unity
    guid: 165a17b9c4b6102478de3edc5d9b8f33
  m_configObjects: {}
